...................
----------------------------------------------------------------------
Ran 19 tests in 0.912s

OK
Name             Stmts   Miss Branch BrPart  Cover   Missing
------------------------------------------------------------
Collatz.py          64      0     30      0   100%
TestCollatz.py      78      0      2      0   100%
------------------------------------------------------------
TOTAL              142      0     32      0   100%