...................
----------------------------------------------------------------------
Ran 19 tests in 0.101s

OK
Name             Stmts   Miss Branch BrPart  Cover   Missing
------------------------------------------------------------
Collatz.py          36      0     16      0   100%
TestCollatz.py      83      0      2      0   100%
------------------------------------------------------------
TOTAL              119      0     18      0   100%
